{
	"title" : "Note",
	"author" : "jebai",

	"server" :
	{
        "development"	: "api.dribbble.com",
        "test"			: "api.dribbble.com",
        "production"	: "api.dribbble.com"
	},

	"model" :
    {
		"Note" :
		{
			"! id"						: 1,
			"created_at"				: "2009/07/07 21:51:22 -0400",
			"title" 					: "title",
			"content" 					: "content"
		}
	},

	"controller" :
    {
    	// Returns the specified list of shots where :list
		// has one of the following values: debuts, everyone, popular
		"GET /notes" :
		{
			"request"	:
			{
				"page"		: 1,
				"per_page"	: 10
			},
			"response"	:
			{
				"page"		: 1,
				"pages"		: 50,
				"per_page"	: 15,
				"total"		: 750,
				"notes"		: ["{Note}"]
			}
		},

    	// Returns details for a shot specified by :id.
		"GET /notes/:id" :
		{
			"request" :
			{
			},
			"response" : "{Note}"
		}
	}
}