	{
	    "title"  : "Note",
	    "author" : "Jebai",

	    "server" :
	    {
	        "development"	: "127.0.0.1:8000",
	        "test"			: "127.0.0.1:8000",
	        "production"	: "127.0.0.1:8000"
	    },

		"enum" :
		{
			"LIST" :
			{
				"DEBUTS"	: "debuts",
				"EVERYONE"	: "everyone",
				"POPULAR"	: "popular"
			}
		},

	    "model" :
	    {
			"PLAYER" :
			{
				"! id"						: 1,
				"name"						: "Dan Cederholm",
				"username"					: "simplebits",
				"url"						: "http://dribbble.com/simplebits",
				"avatar_url"				: "dancederholm-peek.jpg",
				"location"					: "Salem, MA",
				"twitter_screen_name"		: "simplebits",
				"drafted_by_player_id"		: null,
				"shots_count"				: 147,
				"draftees_count"			: 103,
				"followers_count"			: 2027,
				"following_count"			: 354,
				"comments_count"			: 2001,
				"comments_received_count"	: 1509,
				"likes_count"				: 7289,
				"likes_received_count"		: 2624,
				"rebounds_count"			: 15,
				"rebounds_received_count"	: 279,
				"created_at"				: "2009/07/07 21:51:22 -0400"
			},

			"SHOT" :
			{
				"! id"					: 21603,
				"title"					: "Moon",
				"url"					: "http://dribbble.com/shots/21603-Moon",
				"short_url"				: "http://drbl.in/21603",
				"image_url"				: "shot_1274474082.png",
				"image_teaser_url"		: "shot_1274474082_teaser.png",
				"width"					: 400,
				"height"				: 300,
				"views_count"			: 1693,
				"likes_count"			: 15,
				"comments_count"		: 4,
				"rebounds_count"		: 0,
				"rebound_source_id"		: 21595,
				"created_at"			: "2010/05/21 16:34:42 -0400",
				"player"				: "{PLAYER}"
			},

			"COMMENT" :
			{
				"! id"					: 54065,
	      		"body"					: "No clue.",
	      		"likes_count"			: 0,
	      		"created_at"			: "2010/05/21 16:36:22 -0400",
	      		"player"				: "{PLAYER}"
			}
		},
		
	    "controller" :
	    {
	    	// Returns the specified list of shots where :list
			// has one of the following values: debuts, everyone, popular
			"GET /shots/:list" :
			{
				"request"	:
				{
					"page"		: 1,
					"per_page"	: 10
				},
				"response"	:
				{
					"page"		: 1,
					"pages"		: 50,
					"per_page"	: 15,
					"total"		: 750,
					"shots"		: ["{SHOT}"]
				}
			},

	    	// Returns details for a shot specified by :id.
			"GET /shots/:id" :
			{
				"request" :
				{
				},
				"response" : "{SHOT}"
			}
		}
	}